CYP3A4 Substrates,"<ul><li> Aprepitant</li><li> Alprazolam</li><li> Amlodipine</li><li> Aripiprazole</li><li> Atorvastatin</li><li> Budesonide</li><li> Buspirone</li><li> Boceprevir</li><li> Conivaptan</li><li> Chlorpheniramine</li><li> Clarithromycin</li><li> Cyclosporine</li><li> Darifenacin</li><li> Darunavir</li><li> Dasatinib</li><li> Dihydroergotamine</li><li> Diazepam</li><li> Diltiazem</li><li> Dronedarone</li><li> Eletriptan</li><li> Eplerenone</li><li> Ergotamine</li><li> Erythromycin (Not 3A5)</li><li> Everolimus</li><li> Felodipine</li><li> Fentanyl</li><li> Haloperidol</li><li> Hormonal contraceptive agents</li><li> Imatinib</li><li> Indinavir</li><li> Fluticasone</li><li> Lopinavir</li><li> Lovastatin</li><li> Lurasidon</li><li> Methadone</li><li> Maraviroc</li><li> Midazolam</li><li> Nifedipine</li><li> Nisoldipine</li><li> Pimozide</li><li> Quetiapine</li><li> Quinidine</li><li> Ritonavir</li><li> Saquinavir</li><li> Sildenafil</li><li> Simvastatin</li><li> Sirolimus</li><li> Tamoxifen</li><li> Tacrolimus</li><li> Telithromycin</li><li> Telaprevir</li><li> Tolvaptan</li><li> Tipranavir</li><li> Triazolam</li><li> Trazodone</li><li> Ticagrelor</li><li> Verapamil</li><li> Vardenafil</li><li> Vincristine</li></ul>"
CYP1A2 Substrates,"<ul><li> Alosetron</li><li> Clozapine</li><li> Cyclobenzaprine</li><li> Duloxetine</li><li> Fluvoxamine</li><li> Haloperidol</li><li> Imipramine</li><li> Mexiletine</li><li> Naproxen</li><li> Olanzapine</li><li> Ramelteon</li><li> Theophylline</li><li> Tizanidine</li><li> Triamterene</li><li> Zileuton</li><li> Zolmitriptan</li></ul>"
CYP2B6 Substrates,"<ul><li> Bupropion</li><li> Cyclophosphamide</li><li> Efavirenz</li><li> Ifosfamide</li><li> Methadone</li></ul>"
CYP2C8 Substrates,"<ul><li> Cerivastatin</li><li> Paclitaxel</li><li> Repaglinide</li><li> Torsemide</li></ul>"
CYP2C9 Substrates,"<ul><li> Celecoxib</li><li> Diclofenac</li><li> Fluvastatin</li><li> Glipizide</li><li> Ibuprofen</li><li> Irbesartan</li><li> Losartan</li><li> Naproxen</li><li> Phenytoin</li><li> Piroxicam</li><li> Rosiglitazone</li><li> Sulfamethoxazole</li><li> Tolbutamide</li><li> Tamoxifen</li><li> Torsemide</li><li> Warfarin</li></ul>"
CYP2C19 Substrates,"<ul><li> Amitriptyline</li><li> Clomipramine</li><li> Clopidogrel</li><li> Cyclophosphamide</li><li> Diazepam</li><li> Lansoprazole</li><li> Omeprazole</li><li> Pantoprazole</li><li> Phenytoin</li><li> Phenobarbitone</li><li> Progesterone</li><li> Rabeprazole</li></ul>"
CYP2D6 Substrate,"<ul><li> Atomoxetine</li><li> Aripiprazole</li><li> Amitriptyline</li><li> Codeine</li><li> Clomipramine</li><li> Dextromethorphan</li><li> Duloxetine</li><li> Desipramine</li><li> Flecainide</li><li> Haloperidol</li><li> Imipramine</li><li> Metoprolol</li><li> Nebivolol</li><li> Ondansetron</li><li> Propafenone</li><li> Paroxetine</li><li> Perphenazine</li><li> Risperidone</li><li> Timolol</li><li> Tamoxifen</li><li> Tramadol</li><li> Thioridazine</li><li> Tolterodine</li><li> Venlafaxine</li></ul>"
CYP3A Inhibitors,"<h1>Strong Inhibitors (_ 5-fold increase in AUC _or > 80% decrease in Clearance) </h1><ul><li> Boceprevir</li><li> Clarithromycin</li><li> Grapefruit juice</li><li> Indinavir</li><li> Itraconazole</li><li> Ketoconazole</li><li> Lopinavir/ritonavir</li><li> Nelfinavir</li><li> Posaconazole</li><li> Ritonavir</li><li> Saquinavir</li><li> Telaprevir</li><li> Telithromycin</li><li> Voriconazole</li></ul><h1>Moderate inhibitors (_ 2 but < 5-fold increase in AUC_or 50-80% decrease in Clearance)</h1><ul><li> Amprenavir</li><li> Aprepitant</li><li> Atazanavir</li><li> Ciprofloxacin</li><li> Darunavir/ritonavir</li><li> Diltiazem</li><li> Erythromycin</li><li> Fluconazole</li><li> Fosamprenavir</li><li> Grapefruit juice</li><li> Imatinib</li><li> Verapamil</li></ul><h1>Weak inhibitors (_ 1.25 but < 2-fold increase in AUC_or 20-50% decrease in Clearance)</h1><ul><li> Alprazolam</li><li> Amiodarone</li><li> Amlodipine</li><li> Atorvastatin</li><li> Bicalutamide</li><li> Cilostazol</li><li> Cimetidine</li><li> Cyclosporine</li><li> Fluoxetine</li><li> Fluvoxamine</li><li> Ginkgo</li><li> Goldenseal</li><li> Isoniazid</li><li> Nilotinib</li><li> Oral contraceptives</li><li> Ranitidine</li><li> Ranolazine</li><li> Tipranavir/ritonavir</li><li> Zileuton</li></ul>"
CYP1A2 Inhibitors,"<h1>Strong Inhibitors (_ 5-fold increase in AUC _or > 80% decrease in Clearance) </h1><ul><li> Ciprofloxacin</li><li> Enoxacin</li><li> Fluvoxamine</li></ul><h1>Moderate inhibitors (_ 2 but < 5-fold increase in AUC_or 50-80% decrease in Clearance)</h1><ul><li> Methoxsalen</li><li> Oral contraceptives</li><li> Phenylpropanolamine</li><li> Thiabendazole</li><li> Zileuton</li></ul><h1>Weak inhibitors (_ 1.25 but < 2-fold increase in AUC_or 20-50% decrease in Clearance)</h1><ul><li> Acyclovir</li><li> Allopurinol</li><li> Caffeine</li><li> Cimetidine</li><li> Daidzein</li><li> Disulfiram</li><li> Echinacea</li><li> Famotidine</li><li> Norfloxacin</li><li> Propafenone</li><li> Propranolol</li><li> Terbinafine</li><li> Ticlopidine</li><li> Verapamil</li></ul>"
CYP2B6 Inhibitors,"<h1>Weak inhibitors (_ 1.25 but < 2-fold increase in AUC_or 20-50% decrease in Clearance)</h1><ul><li> Clopidogrel</li><li> Ticlopidine</li></ul>"
CYP2C8 Inhibitors,"<h1>Strong Inhibitors (_ 5-fold increase in AUC _or > 80% decrease in Clearance) </h1><ul><li> Gemfibrozil</li></ul><h1>Weak inhibitors (_ 1.25 but < 2-fold increase in AUC_or 20-50% decrease in Clearance)</h1><ul><li> Fluvoxamine</li><li> Ketoconazole</li><li> Trimethoprim</li></ul>"
CYP2C9 Inhibitors,"<h1>Moderate inhibitors (_ 2 but < 5-fold increase in AUC_or 50-80% decrease in Clearance)</h1><ul><li> Amiodarone</li><li> Fluconazole</li><li> Miconazole</li></ul><h1>Weak inhibitors (_ 1.25 but < 2-fold increase in AUC_or 20-50% decrease in Clearance)</h1><ul><li> Capecitabine</li><li> Cotrimoxazole</li><li> Etravirine</li><li> Fluvastatin</li><li> Fluvoxamine</li><li> Metronidazole</li><li> Sulfinpyrazone</li><li> Tigecycline</li><li> Voriconazole</li><li> Zafirlukast</li></ul>"
CYP2C19 Inhibitors,"<h1>Strong Inhibitors (_ 5-fold increase in AUC _or > 80% decrease in Clearance) </h1><ul><li> Fluconazole</li><li> Fluvoxamine</li><li> Ticlopidine</li></ul><h1>Moderate inhibitors (_ 2 but < 5-fold increase in AUC_or 50-80% decrease in Clearance)</h1><ul><li> Esomeprazole</li><li> Fluoxetine</li><li> Omeprazole</li><li> Voriconazole</li></ul><h1>Weak inhibitors (_ 1.25 but < 2-fold increase in AUC_or 20-50% decrease in Clearance)</h1><ul><li> Allicin (garlic derivative)</li><li> Armodafinil</li><li> Carbamazepine</li><li> Cimetidine</li><li> Etravirine</li><li> Human growth hormone</li><li> Ketoconazole</li><li> Oral contraceptives</li></ul>"
CYP2D6 Inhibitors,"<h1>Strong Inhibitors (_ 5-fold increase in AUC _or > 80% decrease in Clearance) </h1><ul><li> Bupropion</li><li> Fluoxetine</li><li> Paroxetine</li><li> Quinidine</li></ul><h1>Moderate inhibitors (_ 2 but < 5-fold increase in AUC_or 50-80% decrease in Clearance)</h1><ul><li> Cinacalcet</li><li> Duloxetine</li><li> Terbinafine</li></ul><h1>Weak inhibitors (_ 1.25 but < 2-fold increase in AUC_or 20-50% decrease in Clearance)</h1><ul><li> Amiodarone</li><li> Celecoxib</li><li> Cimetidine</li><li> Desvenlafaxine</li><li> Diltiazem</li><li> Diphenhydramine</li><li> Echinacea</li><li> Escitalopram</li><li> Gefitinib</li><li> Hydralazine</li><li> Hydroxychloroquine</li><li> Imatinib</li><li> Methadone</li><li> Oral contraceptives</li><li> Propafenone</li><li> Ranitidine</li><li> Ritonavir</li><li> Sertraline</li><li> Telithromycin</li><li> Verapamil</li></ul>"
CYP3A4 Inducers,"<h1>Strong Inducers_(_ 80% decrease in AUC)</h1><ul><li> Carbamazepine</li><li> Phenytoin</li><li> Phenobarbital</li><li> Rifampin</li><li> St. John's wort</li></ul><h1>Moderate Inducers_(50-80% decrease in AUC)</h1><ul><li> Bosentan</li><li> Efavirenz</li><li> Etravirine</li><li> Modafinil</li><li> Nafcillin</li></ul><h1>Weak Inducers_(20-50% decrease in AUC)</h1><ul><li> Amprenavir</li><li> Aprepitant</li><li> Armodafinil</li><li> Echinacea</li><li> Pioglitazone</li><li> Prednisone</li></ul>"
CYP1A2Inducers,"<h1>Moderate Inducers_(50-80% decrease in AUC)</h1><ul><li> Montelukast</li><li> Phenytoin</li><li> Tobacco</li></ul><h1>Weak Inducers_(20-50% decrease in AUC)</h1><ul><li> Omeprazole</li><li> Phenobarbital</li></ul>"
CYP2B6 Inducers,"<h1>Moderate Inducers_(50-80% decrease in AUC)</h1><ul><li> Efavirenz</li><li> Rifampin</li></ul><h1>Weak Inducers_(20-50% decrease in AUC)</h1><ul><li> Nevirapine</li></ul>"
CYP2C8 Inducers,"<h1>Moderate Inducers_(50-80% decrease in AUC)</h1><ul><li> Rifampin</li></ul>"
CYP2C9 Inducers,"<h1>Moderate Inducers_(50-80% decrease in AUC)</h1><ul><li> Carbamazepine</li><li> Rifampin</li></ul><h1>Weak Inducers_(20-50% decrease in AUC)</h1><ul><li> Aprepitant</li><li> Bosentan</li><li> Phenobarbital</li><li> St. John's Wort</li></ul>"
CYP2C19 Inducers,"<h1>Weak Inducers_(20-50% decrease in AUC)</h1><ul><li> Rifampin</li></ul>"
P-gp (Transporter);ABCB1(Gene),"<h1>Substrates </h1>Aliskiren, ambrisentan, colchicine, dabigatran, digoxin, everolimus, fexofenadine, imatinib, lapatinib, maraviroc, nilotinib, posaconazole, ranolazine, saxagliptin, sirolimus, sitagliptin, talinolol, tolvaptan, topotecan. <h1>Inhibitors</h1>Amiodarone, azithromycin,captopril, carvedilol, clarithromycin, conivaptan, cyclosporine, diltiazem, dronedarone, erythromycin,felodipine,  itraconazole, ketoconazole, lopinavir and ritonavir, quercetin, quinidine, ranolazine, verapamil.<h1>Inducers</h1>Carbamazepine, phenytoin, rifampin, St John's wort, tipranavir/ritonavir."
References,"1.http://www.fda.gov/drugs/developmentapprovalprocess/developmentresources/druginteractionslabeling Accessed:2/4/14<br>  2.Flockhart DA. Drug Interactions: Cytochrome P450 Drug Interaction Table. Indiana University School of Medicine (2007). ""http://medicine.iupui.edu/clinpharm/ddis/clinical-table/"" Accessed 2/5/14."