1,5FU,1000,mg/m2/day,Continuous Infusion over 96 hours ,"Day 1-4, Day 29-32"
1,Mitomycin C,10,mg/m2, IV Push ,Day 1 and Day 29
2,5 FU,1000,mg/m2/day,Continuous Infusion over 96 hours ,"Day 1-4, Day 29-32"
2,Cisplatin,75,mg/m2 ,Mix Cisplatin in 500 ml. 0.9% NS. Infuse over 1 hour. Pre and Post Hydration: 1 liter NS with potassium chloride 20 mEq + Magnesium Sulfate 2gm. ,Day 1 and Day 29
3,Methotrexate  ,30,mg/m2,IV Push ,"Day 1, 15 and 22"
3,Vinblastine ,3,mg/m2,IV Push ,"Day 2, 15 and 22"
3,Doxorubicin ,30,mg/m2 ,IV Push ,Day 2
3,Cisplatin  ,70,mg/m2,Mix Cisplatin in 500 ml. 0.9% NS. Infuse over 1 hour. Pre and Post Hydration: 1 liter NS with potassium chloride 20 mEq + Magnesium Sulfate 2gm. ,Day 2
4,Gemcitabine,1000,mg/m2 ,Mix in 250 ml. 0.9%  NS. IV over 30 min.  ,"Day 1, 8 and 15"
4,Cisplatin,70,mg/m2 ,Mix Cisplatin in 500 ml. 0.9% NS. Infuse over 1 hour. Pre and Post Hydration: 1 liter NS with potassium chloride 20 mEq + Magnesium Sulfate 2gm. ,Day 2
5,Gemcitabine,1000,mg/m2 ,Mix in 250 ml. 0.9% NS. IV over 30 min.  ,"Day 1, 8"
5,Carboplatin,5,AUC,Mix in 250 ml. 0.9% NS. IV over 30  min,Day 1
6,Paclitaxel,200,mg/m2,Mix in 500 ml. 0.9% NS.  IV over 1 hour,Day 1
6,Gemcitabine,1000,mg/m2,Mix in 250 ml 0.9% NS. IV over 30 min,"Day 1,8,15"
7,Docetaxel,75,mg/m2,Mix in 250-500 ml 0.9% NS. IV over 60 minutes,Day 8
7,Gemcitabine,1000,mg/m2,Mix in 250 ml 0.9% NS. IV over 30 min,"Day 1,8"
8,Cisplatin,70,mg/m2,Mix Cisplatin in 500 ml. 0.9% NS. Infuse over 1 hour. Pre and Post Hydration: 1 liter NS with potassium chloride 20 mEq + Magnesium Sulfate 2gm. ,Day 1
8,Methotrexate,40,mg/m2,IV,"Day 8,15"
9,Doxorubicin  ,60,mg/m2,Give IV Push,Day 1
9,Cyclophosphamide  ,600,mg/m2,Mix in 250 ml. 0.9% NS. IV over 30-60 minutes,Day 1
10,Doxorubicin  ,60,mg/m2,Give IV Push,Day 1
10,Cyclophosphamide  ,600,mg/m2,Mix in 250 ml. 0.9% NS. IV over 30-60 minutes,Day 1
11,Doxorubicin  ,60,mg/m2,Give IV Push,Day 1
11,Cyclophosphamide  ,600,mg/m2,Mix in 250 ml. 0.9% NS. IV over 30-60 minutes,Day 1
12,Paclitaxel,80,mg/m2,Mix in 250 ml. 0.9% NS.  IV over 1 hour,Day 1
13,Paclitaxel,175,mg/m2,Mix in 500 ml. 0.9% NS.  IV over 1 hour,Day 1
14,Paclitaxel,175,mg/m2,Mix in 500 ml. 0.9% NS.  IV over 1 hour,Day 1
15,Docetaxel,100,mg/m2,Mix in 250-500 ml 0.9% NS. IV over 60 minutes,Day 1
16,Docetaxel,75,mg/m2,Mix in 250-500 ml 0.9% NS. IV over 60 minutes,Day 1
16,Cyclophosphamide,600,mg/m2,Mix in 250 ml. 0.9% NS. IV over 30-60 minutes,
17,Docetaxel,75,mg/m2,Mix in 250-500 ml 0.9% NS. IV over 60 minutes,Day 1
17,Doxorubicin,50,mg/m2,IV Push,Day 1
17,Cyclophosphamide,500,mg/m2,Mix in 250 ml. 0.9% NS. IV over 30-60 minutes,Day 1
18,Cyclophosphamide  ,100,mg/m2,Oral daily,Day 1-14
18,Methotrexate ,40,mg/m2,IV Push,Day 1 and 8
18,5-FU ,600,mg/m2,IV Push,Day 1 and 8
19,Fluorouracil ,500,mg/m2,IV Push,Day 1
19,Epirubicin ,100,mg/m2,IV Push,Day 1
19,Cyclophosphamide ,500,mg/m2,Mix in 250 ml 0.9% NS. IV over 30-60 minutes,Day 1
20,Trastuzumab,8,mg/kg,Mix in 250 ml 0.9%  NS. IV over 90 min,"Day 1, cycle 1"
20,Trastuzumab,6,mg/kg,Mix in 250 ml 0.9%  NS. IV over 30 min,"Day 1, cycle 2"
21,Paclitaxel,80,mg/m2,Mix in 250 ml 0.9% NS.  IV over 1 hour,"Day 1, Cycle 1-12"
21,Trastuzumab,4,mg/kg,Mix in 250 ml. 0.9% NS. IV over 90 min,"Day 1, Cycle 1"
21,Trastuzumab,2,mg/kg,Mix in 250 ml. 0.9% NS. IV over 30 min,"Day 1, cycle 2-12"
21,Trastuzumab,6,mg/kg,Mix in 250 ml 0.9% NS. IV over 30 to 90 min,1 week following last weekly dose of trastuzumab. Administer every 3 weeks for a total of 52 weeks of Herceptin therapy
22,Docetaxel,75,mg/m2,Mix in 250-500 ml 0.9% NS. IV over 60 minutes,Day 1
22,Carboplatin,6,AUC,Mix in 250 ml 0.9% NS. IV over 30  min,Day 1
22,Trastuzumab,4,mg/kg,Mix in 250 ml 0.9%  NS. IV over 90 min,Day 1. One dose only
22,Trastuzumab,2,mg/kg,Mix in 250 ml 0.9% NS. IV over 30 min,Administer weekly for a total of 6 cycles with the chemotherapy. Start week 2 after the 4 mg/kg loading dose
22,Trastuzumab,6, mg/kg,Mix in 250 ml 0.9% NS. IV over 30 to 90 min,1 week following last weekly dose of trastuzumab. Administer every 3 weeks for a total of 52 weeks of trastuzumab therapy
23,Doxil,50,mg/m2,"Mix in 250 ml D5W for dose less than or equal to 90 mg. Mix in 500 ml. D5W for dose > 90 mg. Administer at an initial rate of 1 mg/min for 15 min. If infusion reaction not observed, infuse over 60 min.",Day 1
24,Fulvestrant,250, mg,IM,Day 1
25,Ixabepilone ,40,mg/m2,Mix in Lactated Ringers (non DEHP) 250ml. IV over 3 hours. Cap BSA at 2.2,Day 1
25,Capecitabine,1000,mg/m2,"PO, twice daily",Days 1-14
26,Lapatinib,1250,mg,PO,Daily
26,Capecitabine,1000,mg/m2,"PO, twice daily",Days 1-14
27,Paclitaxel,175,mg/m2,Mix in 500 ml. 0.9% NS.  IV over 1 hour,Day 1
27,Capecitabine,1000,mg/m2,"PO, twice daily",Days 1-14
28,Cyclophosphamide  ,600,mg/m2,Mix in 250 ml. 0.9% NS. IV over 30-60 minutes,Days 1 and 8
28,Methotrexate ,40,mg/m2,IV Push,Day 1 and 8
28,5-FU ,600,mg/m2,IV Push,Day 1 and 8
29,Paclitaxel-albumin,100,mg/m2,Place reconstituted drug in empty sterile bag and infuse over 30 minutes (Do not dilute),"Days 1,8 and 15"
30,Paclitaxel-albumin,260,mg/m2,Place reconstituted drug in empty sterile bag and infuse over 30 minutes (Do not dilute),Day 1
31,Docetaxel,75,mg/m2,Mix in 250-500 ml 0.9% NS. IV over 60 minutes,Day 1
31,Capecitabine,1000,mg/m2,Give Oral twice a day,Days 1-14
32,Gemcitabine,1000,mg/m2,Mix in 250 ml 0.9% NS. IV over 30 min,Days 1 and 8
32,Docetaxel,75,mg/m2,Mix in 250-500 ml 0.9% NS. IV over 60 minutes,Day 1
33,Ixabepilone ,40,mg/m2,Mix in Lactated Ringers (non DEHP) 250ml. Infuse over 3 hours. Cap BSA at 2.2 ,Day 1
34,Vinorelbine,30,mg/m2,Mix in 100 ml 0.9% NS. IV over 20 min ,Day 1
35,Eribulin ,1.4,mg/m2,IV over 2-5 minutes ,"Days 1,8"
36,Lapatinib,1500,mg,Oral,Once daily
36,Letrozole,2.5,mg,Oral,Once daily
37,Docetaxel,100,mg/m2,Mix in 250-500 ml 0.9% NS. IV over 60 minutes,Day 1
37,Trastuzumab,8,mg/kg,Mix in 250 ml 0.9%  NS. IV over 90 min,"Day 1, cycle 1"
37,Trastuzumab,6,mg/kg,Mix in 250 ml 0.9%  NS. IV over 30 min,"Day 1, Cycle 2 onwards"
38,Vinorelbine,30,mg/m2,IV over 6 to 10 min,"Day 1,8"
38,Trastuzumab,8,mg/kg,Mix in 250 ml 0.9%  NS. IV over 90 min,"Day 1, cycle 1"
38,Trastuzumab,6,mg/kg,Mix in 250 ml 0.9%  NS. IV over 30 min,"Day 1, Cycle 2 onwards"
39,Lapatinib,1000,mg,Oral,Once daily
39,Trastuzumab,4,mg/kg,Mix in 250 ml 0.9%  NS. IV over 90 min,Day 1. Loading dose
39,Trastuzumab,2,mg/kg,Mix in 250 ml 0.9% NS. IV over 30 min,Weekly after loading dose
40,Capecitabine,1000,mg/m2,Give Oral twice a day,Day 1-14
40,Trastuzumab,4,mg/kg,Mix in 250 ml 0.9%  NS. IV over 90 min,Day 1. Loading dose
40,Trastuzumab,2,mg/kg,Mix in 250 ml 0.9% NS. IV over 30 min,Weekly after loading dose
165,Docetaxel,75,mg/m2,Mix in 250-500 ml 0.9% NS. IV over 60 minutes,Day 1
165,Trastuzumab,8,mg/kg,Mix in 250 ml 0.9%  NS. IV over 90 min,"Day 1, cycle 1"
165,Trastuzumab,6,mg/kg,Mix in 250 ml 0.9%  NS. IV over 30 min,"Day 1, cycle 2 onwards"
165,Pertuzumab,840,mg,IV over 60 min,"Day 1, cycle 1"
165,Pertuzumab,420,mg,IV over 30-60 min,"Day 1, cycle 2 onwards"
166,Trastuzumab emtansine,3.6,mg/kg,"IV over 90 min. If first infusion is tolerated, subsequent infusions can be over 30 min",Day 1
41,Bevacizumab ,10,mg/kg,"Mix in 100 ml 0.9% NS. Infuse over 90 min. If tolerated, decrease duration to 60 min, to a minimum of 30 min.",Day 1
41,Irinotecan,125,mg/m2,Mix in 250 ml. D5W. Infuse over 90 min,Day 1
42,Temozolomide,75,mg/m2,Oral,"(1) Administer from the first day of radiotherapy until the last day of radiotherapy (maximum 49 days)(2) Followed in 4 weeks by adjuvant Temozolomide 150 to 200 mg/mē/day PO days 1 to 5. Adjuvant temozolomide administered every 28 days for a maximum of 6 cycles  "
43,Procarbazine,100,mg/m2,Oral,Days 1-10
43,Lomustine,100,mg/m2,Oral,Day 1
43,Vincristine,1.5,mg/m2,IV (Maximum dose 2 mg.),Day 1
44,Bevacizumab ,10,mg/kg,"Mix in 100 ml 0.9% NS. IV over 90 min. If tolerated, decrease duration to 60 min, to a minimum of 30 min.",Day 1
45,Gemcitabine,1000,mg/m2,Mix in 250 ml 0.9%  NS. IV over 30 min,Day 1 and Day 8
45,Irinotecan,100,mg/m2,Mix in 250 ml. D5W. Infuse over 90 min,Day 1 and Day 8
46,Gemcitabine,1000,mg/m2,Mix in 250 ml 0.9%  NS. IV over 30 min  ,"Day 1, Day 8"
46,Carboplatin,5,AUC,Mix in 250 ml 0.9% NS. IV over 30  min,Day 8
47,Capecitabine,1000,mg/m2,"Oral, twice daily",Day 1-14
47,Oxaliplatin,130,mg/m2,Mix in 250-500ml D5W. IV over 2 hours,Day 1
48,Cisplatin,40,mg/m2,Mix cisplatin in 250 ml 0.9% NS. Infuse over 1 hour. Pre and Post Hydration: 500 ml NS with potassium chloride 10 mEq + Magnesium Sulfate 1gm. ,Weekly
49,Gemcitabine,1000,mg/m2,Mix in 250 ml 0.9%  NS. IV over 30 min  ,"Day 1, Day 8"
49,Cisplatin,50,mg/m2,Mix in 500 mL 0.9 % NS. IV over 1 hour. Pre and Post Hydration: 1 liter NS with potassium chloride 20 mEq + Magnesium Sulfate 2gm. ,Day 1
50,Topotecan,0.75,mg/m2,Mix in 50-250 ml. 0.9% NS. Infuse over 30 min.,"Days 1,2,3"
50,Cisplatin,50,mg/m2,Mix in 500 mL 0.9 % NS. IV over 1 hour. Pre and Post Hydration: 1 liter NS with potassium chloride 20 mEq + Magnesium Sulfate 2gm. ,Day 1
51,5 FU ,400,mg/m2,Bolus over 2-4 min,Day 1
51,5FU,2400,mg/m2,Continuous Infusion over 46-48 hours ,Day 1
51,Leucovorin,400,mg/m2,Mix in  250 ml D5W. IV over 2 hours,Day 1
51,Oxaliplatin ,85,mg/m2,Mix in 250-500ml D5W. IV over 2 hours,Day 1
52,5FU,2400,mg/m2,Continuous Infusion over 46-48 hours ,Day 1
52,Leucovorin,400,mg/m2,Mix in  250 ml D5W. IV over 2 hours,Day 1
52,Oxaliplatin ,85,mg/m2,Mix in 250-500ml D5W. IV over 2 hours,Day 1
53,Capecitabine,1000,mg/m2,"Oral, twice daily",Day 1-14
53,Oxaliplatin,130,mg/m2,Mix in 250-500ml D5W. IV over 2 hours,Day 1
54,5 FU ,400,mg/m2,Bolus over 2-4 min,Day 1
54,5FU,2400,mg/m2,Continuous Infusion over 46-48 hours ,Day 1
54,Leucovorin,400,mg/m2,Mix in 250 ml. D5W. IV over 2 hours,Day 1
54,Oxaliplatin,85,mg/m2,Mix in 250-500ml D5W. IV over 2 hours,Day 1
54,Bevacizumab,5,mg/kg,"Mix in 100 ml 0.9% NS. IV over 90 min. If tolerated, decrease duration to 60 min, to a minimum of 30 min.",Day 1
55,5FU,2400,mg/m2,Continuous Infusion over 46-48 hours ,Day 1
55,Leucovorin,400,mg/m2,Mix in 250 ml. D5W. IV over 2 hours,Day 1
55,Oxaliplatin,85,mg/m2,Mix in 250-500ml D5W. IV over 2 hours,Day 1
55,Bevacizumab,5,mg/kg,"Mix in 100 ml 0.9% NS. IV over 90 min. If tolerated, decrease duration to 60 min, to a minimum of 30 min.",Day 1
56,5 FU,400,mg/m2,Bolus over 2-4 min,Day 1
56,5FU,2400,mg/m2,Continuous Infusion over 46-48 hours ,Day 1
56,Leucovorin,400,mg/m2,Mix in 250 ml. D5W. IV over 2 hours,Day 1
56,Irinotecan,180,mg/m2,Mix in 500 ml. D5W. IV over 90 min,Day 1
56,Bevacizumab,5,mg/kg,"Mix in 100 ml 0.9% NS. IV over 90 min. If tolerated, decrease duration to 60 min, to a minimum of 30 min.",Day 1
57,5 FU,400,mg/m2,Bolus over 2-4 min,Day 1
57,5FU,2400,mg/m2,Continuous Infusion over 46-48 hours ,Day 1
57,Leucovorin,400,mg/m2,Mix in 250 ml. D5W. IV over 2 hours,Day 1
57,Irinotecan,180,mg/m2,Mix in 500 ml. D5W. IV over 90 min,Day 1
57,Cetuximab,400,mg/m2,IV over 120 minutes ,Day 1
57,Cetuximab,250,mg/m2,IV over 60 minutes, Weekly beginning week 2
58,Panitumumab,6,mg/kg,"Mix in 100 ml. NS (final concentration should not exceed 10mg/ml). IV over 60min. If dose>1000mg; IV over 90min",Day 1
59,5 FU,400,mg/m2,Bolus over 2-4 min,Day 1
59,5FU,2400,mg/m2,Continuous Infusion over 46-48 hours ,Day 1
59,Leucovorin,400,mg/m2,Mix in 250 ml D5W. IV over 2 hours,Day 1
59,Irinotecan,180,mg/m2,Mix in 500 ml. D5W. IV over 90 min,Day 1
59,Panitumumab,6,mg/kg,"Mix in 100 ml. NS (final concentration should not exceed 10mg/ml). IV over 60min. If dose>1000mg; IV over 90min",Day 1
60,5 FU,400,mg/m2,Bolus over 2-4 min,Day 1
60,5FU,2400,mg/m2,Continuous Infusion over 46-48 hours ,Day 1
60,Leucovorin,400,mg/m2,Mix in D5W 250cc and infuse over 2 hours,Day 1
60,Oxaliplatin,85,mg/m2,Mix in 250-500ml D5W and infuse over 2 hours,Day 1
60,Panitumumab,6,mg/kg,"Mix in 100 ml. NS (final concentration should not exceed 10mg/ml). IV over 60min. If dose>1000mg; IV over 90min",Day 1
61,Irinotecan,180,mg/m2,Mix in 500 ml. D5W. IV over 90 min,Day 1
61,Cetuximab,400,mg/m2,IV over 120 minutes ,"Cycle 1, Day 1"
61,Cetuximab,250,mg/m2,IV over 60 minutes, Weekly beginning week 2
62,5FU,3200,mg/m2,Continuous Infusion over 48 hours ,Day 1
62,Leucovorin,200,mg/m2,Mix in 250 ml D5W. IV over 2 hours,Day 1
62,Irinotecan,165,mg/m2,Mix in 500 ml. D5W. IV over 90 min,Day 1
62,Oxaliplatin,85,mg/m2,Mix in 250-500 ml D5W. IV over 2 hours,Day 1
63,Capecitabine,1000,mg/m2,"Oral, twice daily",Day 1-14
63,*Irinotecan,250,mg/m2,Mix in 500 ml. D5W. IV over 90 min. Final concentration range of 0.12 to 2.8 mg/mL,Day 1
64,5 FU,400,mg/m2,Bolus over 2-4 min,Day 1
64,5FU,2400,mg/m2,Continuous Infusion over 46-48 hours ,Day 1
64,Leucovorin,400,mg/m2,Mix in 250 ml. D5W. IV over 2 hours,Day 1
64,Irinotecan,180,mg/m2,Mix in 500 ml. D5W. IV over 90 min,Day 1
65,Capecitabine,1000,mg/m2,"Oral, twice daily",Day 1-14
65,Oxaliplatin,130,mg/m2,Mix in 250-500ml D5W. IV over 2 hours,Day 1
65,Bevacizumab,7.5,mg/kg,"Mix in 100 ml 0.9% NS. IV over 90 min. If tolerated, decrease duration to 60 min, to a minimum of 30 min.",
66,Cetuximab,400,mg/m2,IV over 120 minutes ,First dose
66,Cetuximab,250,mg/m2,IV over 60 minutes,Weekly
67,5FU,2400,mg/m2,Continuous Infusion over 46-48 hours ,Day 1
67,Leucovorin,400,mg/m2,Mix in  250 ml D5W. IV over 2 hours,Day 1
67,Oxaliplatin ,130,mg/m2,Mix in 250-500ml D5W. IV over 2 hours,Day 1
68,5 FU ,400,mg/m2,Bolus over 2-4 min,Day 1
68,5FU,2400,mg/m2,Continuous Infusion over 46-48 hours ,Day 1
68,Leucovorin,400,mg/m2,Mix in  250 ml D5W. IV over 2 hours,Day 1
69,5 FU,1000,mg/m2/day,Continuous Infusion over 96 hours ,"Day 1-4, Day 29-32"
69,Cisplatin,100,mg/m2,Mix Cisplatin in 500 ml. 0.9% NS. Infuse over 1 hour. Pre and Post Hydration: 1 liter NS with potassium chloride 20 mEq + Magnesium Sulfate 2gm. ,Day 1 and Day 29
70,Paclitaxel,50,mg/m2,Mix in 250 ml 0.9% NS. IV  over 1 hour,Weekly during radiation
70,Carboplatin,2,AUC,Mix in 250 ml 0.9% NS. IV over 30  min,Weekly during radiation
71,Epirubicin,50,mg/m2,IV Push,Day 1
71,Cisplatin,60,mg/m2,Mix in 500 mL 0.9 % NS. IV over 1 hour. Pre and Post Hydration: 1 liter NS with potassium chloride 20 mEq + Magnesium Sulfate 2gm. ,Day 1
71,5 FU,200,mg/m2/day,IV pump,Continuous
72,Epirubicin,50,mg/m2,IV Push,Day 1
72,Oxaliplatin,130,mg/m2,Mix in 250-500ml D5W. IV over 2 hours,Day 1
72,Capecitabine,625,mg/m2,"Orally, twice daily",Continuous
73,Epirubicin,50,mg/m2,IV Push,Day 1
73,Cisplatin,60,mg/m2,Mix in 500 mL 0.9 % NS. IV over 1 hour. Pre and Post Hydration: 1 liter NS with potassium chloride 20 mEq + Magnesium Sulfate 2gm. ,Day 1
73,Capecitabine,625,mg/m2,"Orally, twice daily",Continuous
74,Epirubicin,50,mg/m2,IV Push,Day 1
74,Oxaliplatin,130,mg/m2,Mix in 250-500ml D5W. IV over 2 hours,Day 1
74,5 FU,200,mg/m2/day,IV pump,Continuous
76,Cisplatin,80,mg/m2,Mix in 500 mL 0.9 % NS. IV over 1 hour. Pre and Post Hydration: 1 liter NS with potassium chloride 20 mEq + Magnesium Sulfate 2gm. ,Day 1
76,5 FU,800,mg/m2/day,Continuous infusion by pump,Days 1-5
76,Trastuzumab,8,mg/kg,Mix in 250 ml 0.9% NS. IV over 30 to 90 min,Once
76,Trastuzumab,6,mg/kg,Mix in 250 ml 0.9% NS. IV over 30 to 90 min,"Day 1, cycle 2 onwards"
77,Cisplatin,80,mg/m2,Mix in 500 mL 0.9 % NS. IV over 1 hour. Pre and Post Hydration: 1 liter NS with potassium chloride 20 mEq + Magnesium Sulfate 2gm. ,Day 1
77,Capecitabine,1000,mg/m2,"Orally, twice daily",Days 1-14
77,Trastuzumab,8,mg/kg,Mix in 250 ml 0.9% NS. IV over 30 to 90 min,Once
77,Trastuzumab,6,mg/kg,Mix in 250 ml 0.9% NS. IV over 30 to 90 min,"Day 1, cycle 2 onwards"
78,Docetaxel,75,mg/m2,Mix in 250-500 ml 0.9% NS. IV over 60 minutes,Day 1
78,Capecitabine,825,mg/m2,Give Oral twice a day,Days 1-14
79,Cisplatin,100,mg/m2,Mix in 500 mL 0.9 % NS. IV over 1 hour. Pre and Post Hydration: 1 liter NS with potassium chloride 20 mEq + Magnesium Sulfate 2gm. ,"Day 1, day 22 and day 43. Concurrent with radiation"
80,Cetuximab,400,mg/m2,IV over 120 minutes ,1 week Prior to radiation
80,Cetuximab,250,mg/m2,IV over 60 minutes,Weekly with radiation
81,Docetaxel,75,mg/m2,Mix in 250-500 ml 0.9% NS. IV over 60 minutes,Day 1
81,Cisplatin,75,mg/m2,Mix in 500 mL 0.9 % NS. IV over 1 hour. Pre and Post Hydration: 1 liter NS with potassium chloride 20 mEq + Magnesium Sulfate 2gm. ,Day 1
81,5 FU,750,mg/m2/day,Continuous Infusion by pump,Days 1-5
82,Docetaxel,75,mg/m2,Mix in 250-500 ml 0.9% NS. IV over 60 minutes,Day 1
82,Cisplatin,100,mg/m2,Mix in 500 mL 0.9 % NS. IV over 1 hour. Pre and Post Hydration: 1 liter NS with potassium chloride 20 mEq + Magnesium Sulfate 2gm. ,Day 1
82,5 FU,1000,mg/m2/day,Continuous Infusion by pump,Days 1-4
83,Docetaxel,75,mg/m2,Mix in 250-500 ml 0.9% NS. IV over 60 minutes,Day 1
83,Cisplatin,75,mg/m2,Mix in 500 mL 0.9 % NS. IV over 1 hour. Pre and Post Hydration: 1 liter NS with potassium chloride 20 mEq + Magnesium Sulfate 2gm. ,Day 1
84,Carboplatin,5,AUC,Mix in 250 ml 0.9% NS. IV over 30  min,Day 1
84,5 FU,1000,mg/m2/day,Continuous Infusion by pump,Days 1-4
84,Cetuximab,400,mg/m2,IV over 120 minutes ,Week 1
84,Cetuximab,250,mg/m2,IV over 60 minutes,Weekly from week 2
85,Cisplatin,100,mg/m2,Mix in 500 mL 0.9 % NS. IV over 1 hour. Pre and Post Hydration: 1 liter NS with potassium chloride 20 mEq + Magnesium Sulfate 2gm. ,Day 1
85,5 FU,1000,mg/m2/day,Continuous Infusion by pump,Days 1-4
85,Cetuximab,400,mg/m2,IV over 120 minutes ,Week 1
85,Cetuximab,250,mg/m2,IV over 60 minutes,Weekly from week 2
86,Cisplatin,100,mg/m2,Mix in 500 mL 0.9 % NS. IV over 1 hour. Pre and Post Hydration: 1 liter NS with potassium chloride 20 mEq + Magnesium Sulfate 2gm. ,Day 1
86,5 FU,1000,mg/m2/day,Continuous Infusion by pump,Days 1-4
87,Cisplatin,75,mg/m2,Mix in 500 mL 0.9 % NS. IV over 1 hour. Pre and Post Hydration: 1 liter NS with potassium chloride 20 mEq + Magnesium Sulfate 2gm. ,Day 1
87,Paclitaxel,175,mg/m2,Mix in 500 ml. 0.9% NS.  IV over 3 hours. Dilute to concentration: 0.3mg-1.2mg. ,Day 1
88,Navelbine,25,mg/m2,Mix in 100 ml NS. IV over 20 min ,Weekly
88,Cisplatin,50,mg/m2,Mix in 500 mL 0.9 % NS. IV over 1 hour. Pre and Post Hydration:  500 ml. NS with potassium chloride 10 mEq + Magnesium Sulfate 1gm. ,"Days 1,8"
159,Cisplatin,100,mg/m2,Mix in 500 mL 0.9 % NS. IV over 1 hour. Pre and Post Hydration: 1 liter NS with potassium chloride 20 mEq + Magnesium Sulfate 2gm. ,Day 1
159,Etoposide,100,mg/m2,Mix in 500 ml 0.9% NS. IV over 60-90 min,Days 1-3
160,Cisplatin,50,mg/m2,Mix in 500 mL 0.9 % NS. IV over 1 hour. Pre and Post Hydration: 1 liter NS with potassium chloride 20 mEq + Magnesium Sulfate 2gm. ,"Day 1,8, 29,36"
160,Etoposide,50,mg/m2,Mix in 250 ml 0.9% NS. IV over 60-90 min,"Days 1-5, 29-33"
89,Paclitaxel,45,mg/m2,Mix in 250 ml 0.9% NS. IV  over 1 hour,Weekly during radiation
89,Carboplatin,2,AUC,Mix in 250 ml 0.9% NS. IV over 30  min,Weekly during radiation
90,Paclitaxel,200,mg/m2,Mix in 500 ml. 0.9% NS.  IV over 3 hours. Dilute to concentration: 0.3mg-1.2mg. ,Day 1
90,Carboplatin,6,AUC,Mix in 250cc NS. Infuse over 30  min,Day 1
90,Bevacizumab,15,mg/kg,"Mix in 100cc NS. Infuse over 90 min. If tolerated, decrease duration to 60 min, to a minimum of 30 min.",Day 1
91,Gemcitabine,1000,mg/m2,Mix in 250 ml 0.9%  NS. IV over 30 min  ,"Day 1, Day 8"
91,Carboplatin*,5.5,AUC,Mix in 250 ml 0.9% NS. IV over 30  min,Day 1
92,Cisplatin,75,mg/m2,Mix in 500 mL 0.9 % NS. IV over 1 hour. Pre and Post Hydration: 1 liter NS with potassium chloride 20 mEq + Magnesium Sulfate 2gm. ,Day 1
92,Pemetrexed,500,mg/m2, IV over 10 min.,Day 1
93,Pemetrexed,500,mg/m2, IV over 10 min.,Day 1
94,Cisplatin,100,mg/m2,Mix in 500 mL 0.9 % NS. IV over 1 hour. Pre and Post Hydration: 1 liter NS with potassium chloride 20 mEq + Magnesium Sulfate 2gm. ,Day 1
94,Gemcitabine,1000,mg/m2,Mix in 250 ml 0.9%  NS. IV over 30 min  ,"Day 1, Day 8, Day 15"
95,Docetaxel,75,mg/m2,Mix in 250-500 ml 0.9% NS. IV over 60 minutes,Day 1
96,Docetaxel,75,mg/m2,Mix in 250-500 ml 0.9% NS. IV over 60 minutes,Day 1
96,Carboplatin,6,AUC,Mix in 250 ml 0.9% NS. IV over 30  min,Day 1
97,Docetaxel,75,mg/m2,Mix in 250-500 ml 0.9% NS. IV over 60 minutes,Day 1
97,Cisplatin,75,mg/m2,Mix in 500 mL 0.9 % NS. IV over 1 hour. Pre and Post Hydration: 1 liter NS with potassium chloride 20 mEq + Magnesium Sulfate 2gm. ,Day 1
98,Vinorelbine,25,mg/m2,Mix in 100 ml 0.9% NS. IV over 20 min ,"Day 1, Day 8"
98,Gemcitabine,1000,mg/m2,Mix in 250 ml 0.9%  NS. IV over 30 min  ,"Day 1, Day 8"
99,Vinorelbine,30,mg/m2,Mix in 100 ml 0.9% NS. IV over 20 min ,"Day 1, Day 8"
100,Cisplatin,60,mg/m2,Mix in 500 mL 0.9 % NS. IV over 1 hour. Pre and Post Hydration: 1 liter NS with potassium chloride 20 mEq + Magnesium Sulfate 2gm. ,Day 1
100,Etoposide,120,mg/m2,Mix in 500 ml 0.9% NS. IV over 60-90 min,Days 1-3
101,Cisplatin,80,mg/m2,Mix in 500 ml 0.9 % NS. IV over 1 hour. Pre and Post Hydration: 1 liter NS with potassium chloride 20 mEq + Magnesium Sulfate 2gm. ,Day 1
101,Etoposide,100,mg/m2,Mix in 500 ml 0.9% NS. IV over 60-90 min,Days 1-3
102,Carboplatin,6,AUC,Mix in 250 ml 0.9% NS. IV over 30  min,Day 1
102,Etoposide,100,mg/m2,Mix in 500 ml 0.9% NS. IV over 60-90 min,Days 1-3
103,Cisplatin,75,mg/m2,Mix in 500 ml 0.9 % NS. IV over 1 hour. Pre and Post Hydration: 1 liter NS with potassium chloride 20 mEq + Magnesium Sulfate 2gm. ,Day 1
103,Etoposide,100,mg/m2,Mix in 500 ml 0.9% NS. IV over 60-90 min,Days 1-3
104,Carboplatin,5,AUC,Mix in 250 ml 0.9% NS. IV over 30  min,Day 1
104,Etoposide,100,mg/m2,Mix in 500 ml 0.9% NS. IV over 60-90 min,Days 1-3
105,Topotecan,1.5,mg/m2,Mix in 50-250 ml. 0.9% NS. Infuse over 30 min.,Days 1-5
106,Cisplatin,30,mg/m2,Mix in 250 ml 0.9 % NS. IV over 1 hour. Pre Hydration: 1 liter NS with potassium chloride 20 mEq + Magnesium Sulfate 2gm. ,"Days 1,8"
106,Irinotecan,65,mg/m2,Mix in 250 ml. D5W. IV over 90 min,"Days 1,8"
107,Doxorubicin,25,mg/m2,Dilute in 50 ml 0.9% normal saline. Administer over three to five minutes or IV push,Day 1 and 15
107,Bleomycin,10,Unit/m2,Dilute in 50 ml 0.9% NS. Administer over 10 minutes or IV push. Test dose of 2 units given one hour before full dose can be considered for the first cycle.,Day 1 and 15
107,Vinblastine,6,mg/m2,Administer over one minute.,Day 1 and 15
107,Dacarbazine,375,mg/m2,"Central line: Dilute in 250 ml of D5W and administer over 30 minutes.Peripheral line: Dilute in 500 mL of D5W and administer over 60 minutes.",Day 1 and 15
108,Rituximab,375,mg/m2,"Dilute in 0.9% NS or D5W to a final concentration of 1 to 4 mg/mL. Initial infusion: start at 50 mg/hour; escalate in 50 mg/hour increments every 30 minutes to a maximum of 400 mg/hour, as tolerated. ",Day 1
108,Cyclophosphamide,750,mg/m2,Mix in 250 ml 0.9%  NS. IV over 30-60 minutes,Day 1
108,Doxorubicin,50,mg/m2,Mix in 50 ml 0.9% NS. IV over three to five minutes.,Day 1
108,Vincristine,1.4,mg/m2,Mix in 50 ml 0.9% NS. IV over 15 to 20 minutes. Cap Vincristine dose at 2 mg.,Day 1
108,Prednisone,100,mg.,"Oral, once daily",Day 1-5
109,Rituximab,375,mg/m2,"Dilute in 0.9% NS or D5W to a final concentration of 1 to 4 mg/ml. Initial infusion: start at 50 mg/hour; escalate in 50 mg/hour increments every 30 minutes to a maximum of 400 mg/hour, as tolerated. ",Day 1
109,Cyclophosphamide,750,mg/m2,Mix in 250 ml 0.9% NS. IV over 30-60 minutes,Day 1
109,Vincristine,1.4,mg/m2,Mix in 50 ml 0.9% NS and administer over 15 to 20 minutes. Maximum vincristine dose is 2 mg.,Day 1
109,Prednisone*,100,mg.,"Oral, once daily",Day 1-5
110,Rituximab,375,mg/m2,"Dilute in 0.9% NS or D5W to a final concentration of 1 to 4 mg/ml. Initial infusion: start at 50 mg/hour; escalate in 50 mg/hour increments every 30 minutes to a maximum of 400 mg/hour, as tolerated. ",Day 1
111,Ifosfamide,5000,mg/m2,Dilute in 0.9% NS to a final concentration of 0.6 to 20 mg/mL and infuse over 24 hours,Day 2
111,Mesna,5000,mg/m2,Add to ifosfamide bag and administer over 24 hours. Total concentration of mesna should not exceed 20 mg/mL,Day 2
111,Carboplatin,5,AUC,Dilute in 250 mL 0.9%  NS. IV over 30 minutes,Day 2
111,Etoposide,100,mg/m2,Mix in 500 mL 0.9%  NS. IV over 60-90 min,Day 1-3 
111,Rituximab*,375,mg/m2,"Dilute in 0.9% NS or D5W to a final concentration of 1 to 4 mg/ml. Initial infusion: start at 50 mg/hour; escalate in 50 mg/hour increments every 30 minutes to a maximum of 400 mg/hour, as tolerated. \",Day 1
112,Ifosfamide,5000,mg/m2,Dilute in 0.9% NS to a final concentration of 0.6 to 20 mg/mL and infuse over 24 hours,Day 2
112,Mesna,5000,mg/m2,Add to ifosfamide bag and administer over 24 hours. Total concentration of mesna should not exceed 20 mg/mL,Day 2
112,Carboplatin,5, AUC,Dilute in 250 mL 0.9%  NS. IV over 30 minutes,Day 2
112,Etoposide,100,mg/m2,Mix in 500 mL 0.9%  NS. IV over 60-90 min,Day 1-3 
112,Rituximab*,375,mg/m2,"Dilute in 0.9% NS or D5W to a final concentration of 1 to 4 mg/ml. Initial infusion: start at 50 mg/hour; escalate in 50 mg/hour increments every 30 minutes to a maximum of 400 mg/hour, as tolerated.",Day 1
113,Etoposide ,50,mg/m2 /day,Continuous infusion over 24 hours,Day 1 - 4
113,Doxorubicin,10,mg/m2 /day,Continuous infusion over 24 hours,Day 1-4 
113,Vincristine,0.4,mg/m2 /day,Continuous infusion over 24 hours,Day 1-4
113,Cyclophosphamide,750,mg/m2,Mix in 250 ml 0.9% NS. IV over 30-60 minutes,Day 5
113,Prednisone,60,mg/m2,Orally twice daily,Day 1-5
113,Rituximab,375,mg/m2,"Dilute in 0.9% NS or D5W to a final concentration of 1 to 4 mg/ml. Initial infusion: start at 50 mg/hour; escalate in 50 mg/hour increments every 30 minutes to a maximum of 400 mg/hour, as tolerated. ",Day 1
114,Etoposide ,50,mg/m2,Continuous infusion over 24 hours,Day 1 - 4
114,Doxorubicin,10,mg/m2,Continuous infusion over 24 hours,Day 1-4 
114,Vincristine,0.4,mg/m2,Continuous infusion over 24 hours,Day 1-4
114,Cyclophosphamide,750,mg/m2,Mix in 250 ml 0.9% NS. IV over 30-60 minutes,Day 5
114,Prednisone,60,mg/m2,Oral once daily,Day 1-5
114,Rituximab,375,mg/m2,"Dilute in 0.9% NS or D5W to a final concentration of 1 to 4 mg/ml. Initial infusion: start at 50 mg/hour; escalate in 50 mg/hour increments every 30 minutes to a maximum of 400 mg/hour, as tolerated. ",Day 1
115,Bendamustine,90,mg/m2,Dilute in 500 mL 0.9% NS. IV over 30 minutes,Day 1 and Day 2
115,Rituximab,375,mg/m2,"Dilute in 0.9% NS or D5W to a final concentration of 1 to 4 mg/ml. Initial infusion: start at 50 mg/hour; escalate in 50 mg/hour increments every 30 minutes to a maximum of 400 mg/hour, as tolerated. ",Day 1
116,Bendamustine,120,mg/m2,Dilute in 500 mL 0.9% NS. IV over 30 minutes,Day 1 and Day 2
117,Fludarabine,25,mg/m2,Dilute in 100 mL 0.9% NS. IV over 30 minutes,Days 1-3
117,Cyclophosphamide,250,mg/m2,Mix in 100 ml 0.9% NS. IV over 30-60 minutes,Days 1 -3 
117,Rituximab,375,mg/m2,"Dilute in 0.9% NS or D5W to a final concentration of 1 to 4 mg/ml. Initial infusion: start at 50 mg/hour; escalate in 50 mg/hour increments every 30 minutes to a maximum of 400 mg/hour, as tolerated. ","Day 0, Cycle 1"
117,Rituximab,500,mg/m2,"Dilute in 0.9% NS or D5W to a final concentration of 1 to 4 mg/ml. Initial infusion: start at 50 mg/hour; escalate in 50 mg/hour increments every 30 minutes to a maximum of 400 mg/hour, as tolerated. ","Day 1, Cycle 2-6"
118,Etoposide ,40,mg/m2,IV,Days 1-4
118,Methylprednisolone,500,mg,IV,Days 1-5
118,Cisplatin,25,mg/m2 /day,IV continuous infusion,Days 1-4
118,Cytarabine,2000,mg/m2,IV,Day 5
119,Cyclophosphamide,300,mg/m2,IV over 3 hours,Every 12 hours days 13 (6 doses total) 
119,Mesna,600,mg/m2/day,IV continuous infusion days 13,Continue until 12 hours after last dose of Cyclophosphamide 
119,Vincristine ,2,mg,IV,"Days 4, 11 "
119,Doxorubicin ,50,mg/m2,IV over 2 hours ,Day 4
119,Dexamethasone ,40,mg,PO daily ,Days 14 and days 1114 
119,Peg-Filgrastim ,6,mcg ,Subcutaneous ,Day 5. At least 24 hours following completion of chemotherapy 
167,Methotrexate  ,200,mg/m2,IV over 2 hours,Day 1
167,Methotrexate  ,800,mg/m2,Continuous Infusion over 22 hours,Day 1. After 2 hour infusion
167,Leucovorin,15,mg, PO every 6 hours for 8 doses starting 12 hours after completion of the methotrexate. Dose adjusted based on methotrexate levels ,
167,Cytarabine,3000,mg/m2, IV over 2 hours every 12 hours ,"Days 2, 3 (4 doses total) "
167,Methylprednisolone,50,mg,IV. Twice daily,Days 1-3
167,Peg-Filgrastim ,6,mcg ,Subcutaneous ,Day 4. At least 24 hours following completion of chemotherapy 
120,Rituximab,375,mg/m2,"Dilute in 0.9% NS or D5W to a final concentration of 1 to 4 mg/ml. Initial infusion: start at 50 mg/hour; escalate in 50 mg/hour increments every 30 minutes to a maximum of 400 mg/hour, as tolerated. Subsequent infusions can be given over 90-minute for patients who did not experience a grade 3 or 4 infusion-related adverse reaction during Cycle 1.  Patients with clinically significant cardiovascular disease and high circulating lymphocyte counts greater than or equal to 5000/mcL are not recommended to receive the faster infusion.",Day 1
120,Gemcitabine,1000,mg/m2,Mix in 250 ml 0.9%  NS. IV over 30 min  ,Day 1
120,Oxaliplatin,100,mg/m2,Mix in 250-500ml D5W. IV over 2 hours,Day 1
121,Fludarabine,25,mg/m2,Dilute in 100 mL 0.9% NS. IV over 30 minutes,Days 1-5
122,Bortezomib,1.3,mg/m2,IV bolus,"Days 1,4,8,11"
123,Bortezomib,1.3,mg/m2,Subcutaneous,"Days 1,4,8,11"
124,Cytarabine,100,mg/m2/Day,Continuous infusion,Days 1-7
124,Daunorubicin,90,mg/m2,IV,Days 1-3
125,Clofarabine,30,mg/m2,IV over 1 hour,Days 1-5
126,Clofarabine,20,mg/m2,IV over 1 hour,Days 1-5
127,Cytarabine,3000,mg/m2,"IV over 3 hours, every 12 hours","Days 1,3,5 (Total 6 doses)"
128,Bortezomib,1.3,mg/m2,IV bolus,"Days 1,4,8,11,22,25,29 and 32 during cycles 1 to 4 and Days 1,8,22,29 during cycles 5 to 9"
129,Bortezomib,1.3,mg/m2,Subcutaneously ,"Days 1,4,8,11,22,25,29 and 32 during cycles 1 to 4 and Days 1,8,22,29 during cycles 5 to 9"
130,Bortezomib,1.3,mg/m2,IV bolus,"Days 1,4,8,11"
130,Dexamethsone,40,mg,Orally ,Days 1-4 (all cycles) and Days 9-12 (cycles 1 and 2 only) 
131,Bortezomib,1.3,mg/m2,Subcutaneously ,"Days 1,4,8,11"
131,Dexamethsone,40,mg,Orally ,Days 1-4 (all cycles) and Days 9-12 (cycles 1 and 2 only) 
133,Bortezomib,1.3,mg/m2,IV bolus,"Days 1,8,15,22"
133,Dexamethsone,40,mg,Orally ,"Days 1,8,15,22"
134,Bortezomib,1.3,mg/m2,Subcutaneously ,"Days 1,8,15,22"
134,Dexamethsone,40,mg,Orally ,"Days 1,8,15,22"
135,Lenalidomide ,25,mg,Oral,Days 1 - 21 
135,Dexamethasone,40,mg,Oral,"Days 1,8,15,22"
136,Decitabine,20,mg/m2,Dilute in 100 ml 0.9%  NS. Administer IV over 60 minutes,Days 1-5
137,Doxil,40,mg/m2,"Mix in 250 ml D5W for dose less than or equal to 90 mg. Mix in 500 ml. D5W for dose > 90 mg. Administer at an initial rate of 1 mg/min for 15 min. If infusion reaction not observed, infuse over 60 min.",Day 1
138,Paclitaxel,175,mg/m2,Mix in 500 ml. 0.9% NS.  IV over 3 hours. Dilute to concentration: 0.3mg-1.2mg. ,Day 1
138,Carboplatin,6,AUC,Mix in 250cc NS. Infuse over 30  min,Day 1
139,Docetaxel,75,mg/m2,Mix in 250-500 ml 0.9% NS. IV over 60 minutes,Day 1
139,Carboplatin,5,AUC,Mix in 250 ml 0.9% NS. IV over 30  min,Day 1
140,Gemcitabine,1000,mg/m2,Mix in 250 ml 0.9%  NS. IV over 30 min  ,"Day 1, Day 8"
140,Carboplatin,4,AUC,Mix in 250 ml 0.9% NS. IV over 30  min,Day 1
141,Topotecan,1.5,mg/m2,Mix in 50-250 ml. 0.9% NS. Infuse over 30 min.,Days 1-5
142,Gemcitabine  ,1000,mg/m2,Mix in 250 ml 0.9% NS. IV over 30 min.  ,"Day 1, 8 and 15"
163,Gemcitabine  ,1000,mg/m2,Mix in 250 ml 0.9% NS. IV over 30 min.  ,"Day 1,8,15,22,29,36,43"
143,5 FU,400,mg/m2,Bolus over 2-4 min,Day 1
143,5FU,2400,mg/m2,Continuous Infusion over 46-48 hours ,Day 1
143,Leucovorin,400,mg/m2,Mix in 250 ml D5W. IV over 2 hours,Day 1
143,Irinotecan,180,mg/m2,Mix in 500 ml. D5W. IV over 90 min,Day 1
143,Oxaliplatin,85,mg/m2,Mix in 250-500 ml D5W. IV over 2 hours,Day 1
144,Gemcitabine,1000,mg/m2,Mix in 250 ml 0.9%  NS. IV over 30 min  ,"Day 1, Day 8"
144,Cisplatin,25,mg/m2,Mix in 250 mL 0.9 % NS. IV over 1 hour. Pre and Post Hydration: 500 ml 0.9% NS with potassium chloride 10 mEq + Magnesium Sulfate 1 gm. ,"Day 1, Day 8"
145,Gemcitabine  ,1000,mg/m2,Mix in 250 ml 0.9% NS. IV over 30 min.  ,"Day 1, 8 and 15"
145,Erlotinib,100,mg,Oral,Daily
146,Gemcitabine  ,1000,mg/m2,Mix in 250 ml 0.9% NS. IV over 30 min.  ,"Day 1, 8 and 15"
146,Capecitabine,830,mg/m2,"Oral, twice daily",Days 1-21
164,Gemcitabine,1000,mg/m2,Mix in 250 ml 0.9%  NS. IV over 30 min  ,"Day 1, Day 8,Day 15"
164,Abraxane,125,mg/m2,Place reconstituted drug in empty sterile bag and infuse over 30 minutes (Do not dilute),"Day 1, Day 8,Day 15"
147,Docetaxel,75,mg/m2,Mix in 250-500 ml 0.9% NS. Give IV over 60 minutes,Day 1
147,Prednisone,5,mg,"Oral, twice daily",
148,Cabazitaxel,25,mg/m2,Mix in 0.9% NS or D5W. Use 250 ml. if <65 mg. Use 500 ml. if >65 mg.,Day 1
148,Prednisone,10, mg,Daily,
149,Temsirolimus ,25,mg,Mix in 250 ml 0.9% NS. IV over 30 min,Day 1
150,Doxorubicin,15,mg/m2/day,Continuous infusion ,Day 1-4
150,Ifosfamide,2000,mg/m2/day,Continuous infusion ,Day 1-3
150,Dacarbazine,250,mg/m2/day,Continuous infusion  ,Day 1-4
150,Mesna,2500,mg/m2/day,Continuous infusion ,Day 1-4
151,Doxorubicin,20,mg/m2/day,Continuous infusion ,Day 1-3
151,Ifosfamide,1500,mg/m2,IV over 2 hours,Day 1-4
151,Mesna,225,mg/m2,"IV in 250 ml 0.9% NS. IV over 1 hour before ifosfamide, 4 hrs and 8 hrs after ifosfamide",Day 1-4
152,Gemcitabine,900,mg/m2,Mix in 250 ml 0.9% NS. Give IV over 90 min  ,Days 1 and 8
152,Docetaxel,100,mg/m2,Mix in 250-500 ml 0.9 % NS. Give IV over 60 minutes,Day 8
153,Ifosfamide,3000,mg/m2,IV over 4 hours,Days 1-3
153,Mesna,1500,mg/m2,Add to ifosfamide bag and infuse over 4 hours,Days 1-3
153,Mesna,600,mg/m2,Oral," 2 and 6 hours after Ifosfamide, Days 1-3"
154,Carboplatin,7,AUC,Mix in 250 ml 0.9%  NS. IV over 30  min,Day 1
155,Bleomycin,30,Units,Dilute in 50 ml 0.9% NS. Administer over 10 minutes or IV push. Test dose of 2 units given one hour before full dose can be considered for the first cycle.,"Day 1,8 and 15"
155,Etoposide,100,mg/m2,Mix in 500 ml 0.9% NS (concentration less than 0.4 mg/ml). IV over one hour,Day 1-5
155,Cisplatin,20,mg/m2,Mix cisplatin in 250 ml 0.9% NS. Give IV over one hour. Pre and Post Hydration: 500 ml.0.9% NS  with potassium chloride 10 mEq + Magnesium Sulfate 1 gm. ,Day 1-5
156,Etoposide,100,mg/m2,Mix in 500 ml 0.9% NS (concentration less than 0.4 mg/ml). IV over one hour,Days 1-5
156,Cisplatin,20,mg/m2,Mix cisplatin in 250 ml 0.9% NS. Give IV over one hour. Pre and Post Hydration: 500 ml.0.9% NS  with potassium chloride 10 mEq + Magnesium Sulfate 1 gm. ,Days 1-5
157,Etoposide,75,mg/m2,Mix in 500 ml 0.9% NS (concentration less than 0.4 mg/ml). IV over one hour,Days 1-5
157,Cisplatin,20,mg/m2,Mix cisplatin in 250 ml 0.9% NS. Give IV over one hour. Pre and Post Hydration: 500 ml.0.9% NS  with potassium chloride 10 mEq + Magnesium Sulfate 1 gm. ,Days 1-5
157,Ifosfamide,1200,mg/m2/day,"Continuous infusion, Days 1-5",
157,Mesna,120,mg/m2,IV bolus,15 minutes prior to ifosfamide on day 1
157,Mesna,1200,mg/m2/day,"Continuous infusion, Days 1-5",
158,Etoposide,75,mg/m2,Mix in 500 ml 0.9% NS (concentration less than 0.4 mg/ml). IV over one hour,Days 1-5
158,Cisplatin,20,mg/m2,Mix cisplatin in 250 ml 0.9% NS. Give IV over one hour. Pre and Post Hydration: 500 ml.0.9% NS  with potassium chloride 10 mEq + Magnesium Sulfate 1 gm. ,Days 1-5
158,Ifosfamide,1200,mg/m2 /day,"Continuous infusion, Days 1-5",
158,Mesna,120,mg/m2,IV bolus,15 minutes prior to ifosfamide on day 1
158,Mesna,1200,mg/m2/day,"Continuous infusion, Days 1-5",
161,Gemcitabine,1000,mg/m2,Mix in 250 ml. 0.9%  NS. IV over 30 min.  ,"Day 1, 8 and 15"
161,Cisplatin,70,mg/m2,Mix Cisplatin in 500 ml. 0.9% NS. Infuse over 1 hour. Pre and Post Hydration: 1 liter NS with potassium chloride 20 mEq + Magnesium Sulfate 2gm. ,Day 1
162,Rituximab,375,mg/m2,Dilute in 0.9% NS or D5W to a final concentration of 1 to 4 mg/ml. Infusions of rituximab can be given over 90-minute for patients who did not experience a grade 3 or 4 infusion-related adverse reaction during Cycle 1.  Patients with clinically significant cardiovascular disease and high circulating lymphocyte counts greater than or equal to 5000/mcl are not recommended to receive the faster infusion.,Day 1